CSV vs Parquet: A Better Default for Analytics – Rome R-Users Group
…
dates

numeric columns

Parquet preserves them.

This reduces silent coercion bugs.

Bonus — Select Columns Without Loading Everything

With arrow, you can load only what you need:

read_parquet("data.parquet", col_select = c("id", "value"))

# A tibble: 200,000 × 2
      id   value
   <int>   <dbl>
 1     1  0.945 
 2     2 -0.284 
 3     3  0.395 
 4     4  1.32  
 5     5  0.872 
 6     6  0.0354
 7     7 -0.427 
 8     8 -0.975 
 9     9  0.0965
10    10  0.808 
# ℹ 199,990 more rows
…
